(module k_Trinamic_TMC5160-BOB (layer F.Cu) (tedit 5CD2EB27)
  (descr "Trinamic TMC5160-BOB")
  (tags "STepper Motor Controller Shield")
  (fp_text reference REF** (at -13.97 -15.24) (layer F.SilkS)
    (effects (font (size 1 1) (thickness 0.15)))
  )
  (fp_text value k_Trinamic_TMC5160-BOB (at -6.35 12.7) (layer F.Fab)
    (effects (font (size 1 1) (thickness 0.15)))
  )
  (fp_line (start -17.78 -15.24) (end -16.51 -13.97) (layer F.SilkS) (width 0.15))
  (fp_line (start -19.05 -13.97) (end -17.78 -15.24) (layer F.SilkS) (width 0.15))
  (fp_line (start -19.05 -11.43) (end -16.51 -11.43) (layer F.SilkS) (width 0.15))
  (fp_line (start 16.51 13.97) (end 16.51 -13.97) (layer F.SilkS) (width 0.15))
  (fp_line (start -16.51 -13.97) (end -16.51 13.97) (layer F.SilkS) (width 0.15))
  (fp_line (start 19.05 -13.97) (end -19.05 -13.97) (layer F.SilkS) (width 0.15))
  (fp_line (start 19.05 13.97) (end 19.05 -13.97) (layer F.SilkS) (width 0.15))
  (fp_line (start -19.05 13.97) (end 19.05 13.97) (layer F.SilkS) (width 0.15))
  (fp_line (start -19.05 -13.97) (end -19.05 13.97) (layer F.SilkS) (width 0.15))
  (pad 22 thru_hole circle (at 17.78 -12.7) (size 1.7 1.7) (drill 1) (layers *.Cu *.Mask))
  (pad 21 thru_hole circle (at 17.78 -10.16) (size 1.7 1.7) (drill 1) (layers *.Cu *.Mask))
  (pad 20 thru_hole circle (at 17.78 -7.62) (size 1.7 1.7) (drill 1) (layers *.Cu *.Mask))
  (pad 19 thru_hole circle (at 17.78 -5.08) (size 1.7 1.7) (drill 1) (layers *.Cu *.Mask))
  (pad 18 thru_hole circle (at 17.78 -2.54) (size 1.7 1.7) (drill 1) (layers *.Cu *.Mask))
  (pad 17 thru_hole circle (at 17.78 0) (size 1.7 1.7) (drill 1) (layers *.Cu *.Mask))
  (pad 16 thru_hole circle (at 17.78 2.54) (size 1.7 1.7) (drill 1) (layers *.Cu *.Mask))
  (pad 15 thru_hole circle (at 17.78 5.08) (size 1.7 1.7) (drill 1) (layers *.Cu *.Mask))
  (pad 14 thru_hole circle (at 17.78 7.62) (size 1.7 1.7) (drill 1) (layers *.Cu *.Mask))
  (pad 13 thru_hole circle (at 17.78 10.16) (size 1.7 1.7) (drill 1) (layers *.Cu *.Mask))
  (pad 12 thru_hole circle (at 17.78 12.7) (size 1.7 1.7) (drill 1) (layers *.Cu *.Mask))
  (pad 11 thru_hole circle (at -17.78 12.7) (size 1.7 1.7) (drill 1) (layers *.Cu *.Mask))
  (pad 10 thru_hole circle (at -17.78 10.16) (size 1.7 1.7) (drill 1) (layers *.Cu *.Mask))
  (pad 9 thru_hole circle (at -17.78 7.62) (size 1.7 1.7) (drill 1) (layers *.Cu *.Mask))
  (pad 8 thru_hole circle (at -17.78 5.08) (size 1.7 1.7) (drill 1) (layers *.Cu *.Mask))
  (pad 7 thru_hole circle (at -17.78 2.54) (size 1.7 1.7) (drill 1) (layers *.Cu *.Mask))
  (pad 6 thru_hole circle (at -17.78 0) (size 1.7 1.7) (drill 1) (layers *.Cu *.Mask))
  (pad 5 thru_hole circle (at -17.78 -2.54) (size 1.7 1.7) (drill 1) (layers *.Cu *.Mask))
  (pad 4 thru_hole circle (at -17.78 -5.08) (size 1.7 1.7) (drill 1) (layers *.Cu *.Mask))
  (pad 3 thru_hole circle (at -17.78 -7.62) (size 1.7 1.7) (drill 1) (layers *.Cu *.Mask))
  (pad 2 thru_hole circle (at -17.78 -10.16) (size 1.7 1.7) (drill 1) (layers *.Cu *.Mask))
  (pad 1 thru_hole rect (at -17.78 -12.7 90) (size 1.7 1.8) (drill 1) (layers *.Cu *.Mask))
  (model ${KIPRJMOD}/k_kicad_libs/models.3d/k_Module.3dshapes/k_TMC5160-BOB_V1.2.step
    (offset (xyz 17.75 12.75 10.2))
    (scale (xyz 1 1 1))
    (rotate (xyz 0 0 0))
  )
  (model ${KIPRJMOD}/k_kicad_libs/models.3d/k_Connector_PinSocket_2.54mm.3dshapes/k_PinSocket_1x11_P2.54mm_Vertical.step
    (offset (xyz 17.75 12.75 0))
    (scale (xyz 1 1 1))
    (rotate (xyz 0 0 0))
  )
  (model ${KIPRJMOD}/k_kicad_libs/models.3d/k_Connector_PinSocket_2.54mm.3dshapes/k_PinSocket_1x11_P2.54mm_Vertical.step
    (offset (xyz -17.75 12.75 0))
    (scale (xyz 1 1 1))
    (rotate (xyz 0 0 0))
  )
  (model ${KIPRJMOD}/k_kicad_libs/models.3d/k_Connector_PinHeader_2.54mm.3dshapes/k_PinHeader_1x11_P2.54mm_Vertical.step
    (offset (xyz 17.75 12.75 9.5))
    (scale (xyz 1 1 1))
    (rotate (xyz 0 180 0))
  )
  (model ${KIPRJMOD}/k_kicad_libs/models.3d/k_Connector_PinHeader_2.54mm.3dshapes/k_PinHeader_1x11_P2.54mm_Vertical.step
    (offset (xyz -17.75 12.75 9.5))
    (scale (xyz 1 1 1))
    (rotate (xyz 0 180 0))
  )
)
