(module DRV8825 (layer F.Cu) (tedit 56EFAA04)
  (fp_text reference REF** (at 0 3.81) (layer F.SilkS)
    (effects (font (size 1 1) (thickness 0.15)))
  )
  (fp_text value DRV8825 (at 0 -3.175) (layer F.Fab)
    (effects (font (size 1 1) (thickness 0.15)))
  )
  (fp_line (start -3.175 -5.08) (end -4.318 -5.08) (layer F.SilkS) (width 0.15))
  (fp_line (start -4.318 -5.08) (end -4.318 -4.826) (layer F.SilkS) (width 0.15))
  (fp_line (start -4.318 -4.826) (end -4.572 -4.826) (layer F.SilkS) (width 0.15))
  (fp_line (start -4.572 -4.826) (end -4.572 -5.08) (layer F.SilkS) (width 0.15))
  (fp_line (start -4.572 -5.08) (end -5.715 -5.08) (layer F.SilkS) (width 0.15))
  (fp_line (start -3.175 -7.62) (end -3.429 -7.62) (layer F.SilkS) (width 0.15))
  (fp_line (start -3.429 -7.62) (end -3.429 -7.874) (layer F.SilkS) (width 0.15))
  (fp_line (start -3.429 -7.874) (end -3.683 -7.874) (layer F.SilkS) (width 0.15))
  (fp_line (start -3.683 -7.874) (end -3.683 -7.62) (layer F.SilkS) (width 0.15))
  (fp_line (start -3.683 -7.62) (end -5.207 -7.62) (layer F.SilkS) (width 0.15))
  (fp_line (start -5.207 -7.62) (end -5.207 -7.874) (layer F.SilkS) (width 0.15))
  (fp_line (start -5.207 -7.874) (end -5.461 -7.874) (layer F.SilkS) (width 0.15))
  (fp_line (start -5.461 -7.874) (end -5.461 -7.62) (layer F.SilkS) (width 0.15))
  (fp_line (start -5.461 -7.62) (end -5.715 -7.62) (layer F.SilkS) (width 0.15))
  (fp_line (start -3.175 -7.62) (end -3.175 -5.08) (layer F.SilkS) (width 0.15))
  (fp_circle (center -4.445 -6.35) (end -4.445 -6.985) (layer F.SilkS) (width 0.15))
  (fp_line (start -5.08 -6.35) (end -3.81 -6.35) (layer F.SilkS) (width 0.15))
  (fp_line (start -4.445 -6.985) (end -4.445 -5.715) (layer F.SilkS) (width 0.15))
  (fp_line (start -5.715 -7.62) (end -5.715 -5.08) (layer F.SilkS) (width 0.15))
  (fp_line (start -8.89 -8.89) (end 8.89 -8.89) (layer F.SilkS) (width 0.15))
  (fp_line (start 8.89 -8.89) (end 8.89 11.43) (layer F.SilkS) (width 0.15))
  (fp_line (start 8.89 11.43) (end -8.89 11.43) (layer F.SilkS) (width 0.15))
  (fp_line (start -8.89 11.43) (end -8.89 -8.89) (layer F.SilkS) (width 0.15))
  (pad 16 thru_hole circle (at -7.62 10.16) (size 1.524 1.524) (drill 0.762) (layers *.Cu *.Mask F.SilkS))
  (pad 15 thru_hole circle (at -7.62 7.62) (size 1.524 1.524) (drill 0.762) (layers *.Cu *.Mask F.SilkS))
  (pad 14 thru_hole circle (at -7.62 5.08) (size 1.524 1.524) (drill 0.762) (layers *.Cu *.Mask F.SilkS))
  (pad 13 thru_hole circle (at -7.62 2.54) (size 1.524 1.524) (drill 0.762) (layers *.Cu *.Mask F.SilkS))
  (pad 12 thru_hole circle (at -7.62 0) (size 1.524 1.524) (drill 0.762) (layers *.Cu *.Mask F.SilkS))
  (pad 11 thru_hole circle (at -7.62 -2.54) (size 1.524 1.524) (drill 0.762) (layers *.Cu *.Mask F.SilkS))
  (pad 10 thru_hole circle (at -7.62 -5.08) (size 1.524 1.524) (drill 0.762) (layers *.Cu *.Mask F.SilkS))
  (pad 9 thru_hole circle (at -7.62 -7.62) (size 1.524 1.524) (drill 0.762) (layers *.Cu *.Mask F.SilkS))
  (pad 8 thru_hole circle (at 7.62 -7.62) (size 1.524 1.524) (drill 0.762) (layers *.Cu *.Mask F.SilkS))
  (pad 7 thru_hole rect (at 7.62 -5.08) (size 1.524 1.524) (drill 0.762) (layers *.Cu *.Mask F.SilkS))
  (pad 6 thru_hole circle (at 7.62 -2.54) (size 1.524 1.524) (drill 0.762) (layers *.Cu *.Mask F.SilkS))
  (pad 5 thru_hole circle (at 7.62 0) (size 1.524 1.524) (drill 0.762) (layers *.Cu *.Mask F.SilkS))
  (pad 4 thru_hole circle (at 7.62 2.54) (size 1.524 1.524) (drill 0.762) (layers *.Cu *.Mask F.SilkS))
  (pad 3 thru_hole circle (at 7.62 5.08) (size 1.524 1.524) (drill 0.762) (layers *.Cu *.Mask F.SilkS))
  (pad 2 thru_hole circle (at 7.62 7.62) (size 1.524 1.524) (drill 0.762) (layers *.Cu *.Mask F.SilkS))
  (pad 1 thru_hole rect (at 7.62 10.16) (size 1.524 1.524) (drill 0.762) (layers *.Cu *.Mask F.SilkS))
)
