(module DIP-4_W7.62mm_SMDSocket_SmallPads_modify (layer F.Cu) (tedit 5BDC3BC0)
  (descr "4-lead though-hole mounted DIP package, row spacing 7.62 mm (300 mils), SMDSocket, SmallPads")
  (tags "THT DIP DIL PDIP 2.54mm 7.62mm 300mil SMDSocket SmallPads")
  (attr smd)
  (fp_text reference U2 (at -34.798 -7.664) (layer F.SilkS)
    (effects (font (size 1 1) (thickness 0.15)))
  )
  (fp_text value LTV814 (at 0 3.6) (layer F.Fab)
    (effects (font (size 1 1) (thickness 0.15)))
  )
  (fp_text user %R (at 0 0) (layer F.Fab)
    (effects (font (size 1 1) (thickness 0.15)))
  )
  (fp_line (start 5.35 -2.85) (end -5.35 -2.85) (layer F.CrtYd) (width 0.05))
  (fp_line (start 5.35 2.85) (end 5.35 -2.85) (layer F.CrtYd) (width 0.05))
  (fp_line (start -5.35 2.85) (end 5.35 2.85) (layer F.CrtYd) (width 0.05))
  (fp_line (start -5.35 -2.85) (end -5.35 2.85) (layer F.CrtYd) (width 0.05))
  (fp_line (start 2.65 -2.6) (end 1 -2.6) (layer F.SilkS) (width 0.12))
  (fp_line (start 2.65 2.6) (end 2.65 -2.6) (layer F.SilkS) (width 0.12))
  (fp_line (start -2.65 2.6) (end 2.65 2.6) (layer F.SilkS) (width 0.12))
  (fp_line (start -2.65 -2.6) (end -2.65 2.6) (layer F.SilkS) (width 0.12))
  (fp_line (start -1 -2.6) (end -2.65 -2.6) (layer F.SilkS) (width 0.12))
  (fp_line (start -3.175 -1.54) (end -2.175 -2.54) (layer F.Fab) (width 0.1))
  (fp_line (start -3.175 2.54) (end -3.175 -1.54) (layer F.Fab) (width 0.1))
  (fp_line (start 3.175 2.54) (end -3.175 2.54) (layer F.Fab) (width 0.1))
  (fp_line (start 3.175 -2.54) (end 3.175 2.54) (layer F.Fab) (width 0.1))
  (fp_line (start -2.175 -2.54) (end 3.175 -2.54) (layer F.Fab) (width 0.1))
  (fp_arc (start 0 -2.6) (end -1 -2.6) (angle -180) (layer F.SilkS) (width 0.12))
  (pad 4 smd rect (at 3.81 -1.27) (size 1.6 1.6) (layers F.Cu F.Paste F.Mask))
  (pad 2 smd rect (at -3.81 1.27) (size 1.6 1.6) (layers F.Cu F.Paste F.Mask))
  (pad 3 smd rect (at 3.81 1.27) (size 1.6 1.6) (layers F.Cu F.Paste F.Mask))
  (pad 1 smd rect (at -3.81 -1.27) (size 1.6 1.6) (layers F.Cu F.Paste F.Mask))
  (model ${KISYS3DMOD}/Package_DIP.3dshapes/DIP-4_W7.62mm_SMDSocket.wrl
    (at (xyz 0 0 0))
    (scale (xyz 1 1 1))
    (rotate (xyz 0 0 0))
  )
)
