(module k_PhoenixContact_MCV_0,5_6-G-2,54_1x02_P2.54mm_Vertical (layer F.Cu) (tedit 5CD2E6F5)
  (fp_text reference REF** (at -1.3 3.1) (layer F.SilkS)
    (effects (font (size 1 1) (thickness 0.15)))
  )
  (fp_text value k_PhoenixContact_MCV_0,5_6-G-2,54_1x02_P2.54mm_Vertical (at 2.3 -6.9) (layer F.Fab)
    (effects (font (size 1 1) (thickness 0.15)))
  )
  (fp_line (start -1.5 2) (end 14.2 2) (layer F.SilkS) (width 0.15))
  (fp_line (start -3.6 1.5) (end -3.6 -2.4) (layer F.SilkS) (width 0.15))
  (fp_line (start -1.5 -2.9) (end 14.2 -2.9) (layer F.SilkS) (width 0.15))
  (fp_line (start 16.3 -2.4) (end 16.3 1.5) (layer F.SilkS) (width 0.15))
  (fp_line (start -1.5 -2.9) (end -1.5 2) (layer F.SilkS) (width 0.15))
  (fp_line (start -3.6 1.5) (end -1.5 1.5) (layer F.SilkS) (width 0.15))
  (fp_line (start -3.6 -2.4) (end -1.5 -2.4) (layer F.SilkS) (width 0.15))
  (fp_line (start 14.2 -2.4) (end 16.3 -2.4) (layer F.SilkS) (width 0.15))
  (fp_line (start 14.2 1.5) (end 16.3 1.5) (layer F.SilkS) (width 0.15))
  (fp_line (start 14.2 -2.9) (end 14.2 2) (layer F.SilkS) (width 0.15))
  (fp_line (start 1.1 1.65) (end 0.75 1.65) (layer F.SilkS) (width 0.12))
  (fp_line (start 1.1 -1.4) (end 1.1 1.65) (layer F.SilkS) (width 0.12))
  (fp_line (start 0.35 -1.45) (end 1.1 -1.45) (layer F.SilkS) (width 0.12))
  (fp_line (start 0.35 -1.8) (end 0.35 -1.45) (layer F.SilkS) (width 0.12))
  (fp_line (start 0.6 -1.8) (end 0.35 -1.8) (layer F.SilkS) (width 0.12))
  (fp_line (start 0.7 -2.3) (end 0.6 -1.8) (layer F.SilkS) (width 0.12))
  (fp_line (start -0.7 -2.3) (end 0.7 -2.3) (layer F.SilkS) (width 0.12))
  (fp_line (start -0.6 -1.8) (end -0.7 -2.3) (layer F.SilkS) (width 0.12))
  (fp_line (start -0.35 -1.8) (end -0.6 -1.8) (layer F.SilkS) (width 0.12))
  (fp_line (start -0.35 -1.45) (end -0.35 -1.8) (layer F.SilkS) (width 0.12))
  (fp_line (start -1.1 -1.45) (end -0.35 -1.45) (layer F.SilkS) (width 0.12))
  (fp_line (start -1.1 1.65) (end -1.1 -1.4) (layer F.SilkS) (width 0.12))
  (fp_line (start -0.75 1.65) (end -1.1 1.65) (layer F.SilkS) (width 0.12))
  (fp_arc (start 0 3.35) (end -0.75 1.65) (angle 47.59998644) (layer F.SilkS) (width 0.12))
  (fp_line (start 1.79 1.65) (end 1.44 1.65) (layer F.SilkS) (width 0.12))
  (fp_line (start 1.84 -2.3) (end 3.24 -2.3) (layer F.SilkS) (width 0.12))
  (fp_line (start 3.64 -1.4) (end 3.64 1.65) (layer F.SilkS) (width 0.12))
  (fp_line (start 3.14 -1.8) (end 2.89 -1.8) (layer F.SilkS) (width 0.12))
  (fp_line (start 1.44 1.65) (end 1.44 -1.4) (layer F.SilkS) (width 0.12))
  (fp_line (start 2.89 -1.8) (end 2.89 -1.45) (layer F.SilkS) (width 0.12))
  (fp_line (start 3.64 1.65) (end 3.29 1.65) (layer F.SilkS) (width 0.12))
  (fp_line (start 1.44 -1.45) (end 2.19 -1.45) (layer F.SilkS) (width 0.12))
  (fp_arc (start 2.54 3.35) (end 1.79 1.65) (angle 47.59998644) (layer F.SilkS) (width 0.12))
  (fp_line (start 3.24 -2.3) (end 3.14 -1.8) (layer F.SilkS) (width 0.12))
  (fp_line (start 1.94 -1.8) (end 1.84 -2.3) (layer F.SilkS) (width 0.12))
  (fp_line (start 2.19 -1.45) (end 2.19 -1.8) (layer F.SilkS) (width 0.12))
  (fp_line (start 2.89 -1.45) (end 3.64 -1.45) (layer F.SilkS) (width 0.12))
  (fp_line (start 2.19 -1.8) (end 1.94 -1.8) (layer F.SilkS) (width 0.12))
  (fp_line (start 4.33 1.65) (end 3.98 1.65) (layer F.SilkS) (width 0.12))
  (fp_line (start 4.38 -2.3) (end 5.78 -2.3) (layer F.SilkS) (width 0.12))
  (fp_line (start 6.18 -1.4) (end 6.18 1.65) (layer F.SilkS) (width 0.12))
  (fp_line (start 5.68 -1.8) (end 5.43 -1.8) (layer F.SilkS) (width 0.12))
  (fp_line (start 3.98 1.65) (end 3.98 -1.4) (layer F.SilkS) (width 0.12))
  (fp_line (start 5.43 -1.8) (end 5.43 -1.45) (layer F.SilkS) (width 0.12))
  (fp_line (start 6.18 1.65) (end 5.83 1.65) (layer F.SilkS) (width 0.12))
  (fp_line (start 3.98 -1.45) (end 4.73 -1.45) (layer F.SilkS) (width 0.12))
  (fp_arc (start 5.08 3.35) (end 4.33 1.65) (angle 47.59998644) (layer F.SilkS) (width 0.12))
  (fp_line (start 5.78 -2.3) (end 5.68 -1.8) (layer F.SilkS) (width 0.12))
  (fp_line (start 4.48 -1.8) (end 4.38 -2.3) (layer F.SilkS) (width 0.12))
  (fp_line (start 4.73 -1.45) (end 4.73 -1.8) (layer F.SilkS) (width 0.12))
  (fp_line (start 5.43 -1.45) (end 6.18 -1.45) (layer F.SilkS) (width 0.12))
  (fp_line (start 4.73 -1.8) (end 4.48 -1.8) (layer F.SilkS) (width 0.12))
  (fp_line (start 6.87 1.65) (end 6.52 1.65) (layer F.SilkS) (width 0.12))
  (fp_line (start 6.92 -2.3) (end 8.32 -2.3) (layer F.SilkS) (width 0.12))
  (fp_line (start 8.72 -1.4) (end 8.72 1.65) (layer F.SilkS) (width 0.12))
  (fp_line (start 8.22 -1.8) (end 7.97 -1.8) (layer F.SilkS) (width 0.12))
  (fp_line (start 6.52 1.65) (end 6.52 -1.4) (layer F.SilkS) (width 0.12))
  (fp_line (start 7.97 -1.8) (end 7.97 -1.45) (layer F.SilkS) (width 0.12))
  (fp_line (start 8.72 1.65) (end 8.37 1.65) (layer F.SilkS) (width 0.12))
  (fp_line (start 6.52 -1.45) (end 7.27 -1.45) (layer F.SilkS) (width 0.12))
  (fp_arc (start 7.62 3.35) (end 6.87 1.65) (angle 47.59998644) (layer F.SilkS) (width 0.12))
  (fp_line (start 8.32 -2.3) (end 8.22 -1.8) (layer F.SilkS) (width 0.12))
  (fp_line (start 7.02 -1.8) (end 6.92 -2.3) (layer F.SilkS) (width 0.12))
  (fp_line (start 7.27 -1.45) (end 7.27 -1.8) (layer F.SilkS) (width 0.12))
  (fp_line (start 7.97 -1.45) (end 8.72 -1.45) (layer F.SilkS) (width 0.12))
  (fp_line (start 7.27 -1.8) (end 7.02 -1.8) (layer F.SilkS) (width 0.12))
  (fp_line (start 9.41 1.65) (end 9.06 1.65) (layer F.SilkS) (width 0.12))
  (fp_line (start 9.46 -2.3) (end 10.86 -2.3) (layer F.SilkS) (width 0.12))
  (fp_line (start 11.26 -1.4) (end 11.26 1.65) (layer F.SilkS) (width 0.12))
  (fp_line (start 10.76 -1.8) (end 10.51 -1.8) (layer F.SilkS) (width 0.12))
  (fp_line (start 9.06 1.65) (end 9.06 -1.4) (layer F.SilkS) (width 0.12))
  (fp_line (start 10.51 -1.8) (end 10.51 -1.45) (layer F.SilkS) (width 0.12))
  (fp_line (start 11.26 1.65) (end 10.91 1.65) (layer F.SilkS) (width 0.12))
  (fp_line (start 9.06 -1.45) (end 9.81 -1.45) (layer F.SilkS) (width 0.12))
  (fp_arc (start 10.16 3.35) (end 9.41 1.65) (angle 47.59998644) (layer F.SilkS) (width 0.12))
  (fp_line (start 10.86 -2.3) (end 10.76 -1.8) (layer F.SilkS) (width 0.12))
  (fp_line (start 9.56 -1.8) (end 9.46 -2.3) (layer F.SilkS) (width 0.12))
  (fp_line (start 9.81 -1.45) (end 9.81 -1.8) (layer F.SilkS) (width 0.12))
  (fp_line (start 10.51 -1.45) (end 11.26 -1.45) (layer F.SilkS) (width 0.12))
  (fp_line (start 9.81 -1.8) (end 9.56 -1.8) (layer F.SilkS) (width 0.12))
  (fp_line (start 11.95 1.65) (end 11.6 1.65) (layer F.SilkS) (width 0.12))
  (fp_line (start 12 -2.3) (end 13.4 -2.3) (layer F.SilkS) (width 0.12))
  (fp_line (start 13.8 -1.4) (end 13.8 1.65) (layer F.SilkS) (width 0.12))
  (fp_line (start 13.3 -1.8) (end 13.05 -1.8) (layer F.SilkS) (width 0.12))
  (fp_line (start 11.6 1.65) (end 11.6 -1.4) (layer F.SilkS) (width 0.12))
  (fp_line (start 13.05 -1.8) (end 13.05 -1.45) (layer F.SilkS) (width 0.12))
  (fp_line (start 13.8 1.65) (end 13.45 1.65) (layer F.SilkS) (width 0.12))
  (fp_line (start 11.6 -1.45) (end 12.35 -1.45) (layer F.SilkS) (width 0.12))
  (fp_arc (start 12.7 3.35) (end 11.95 1.65) (angle 47.59998644) (layer F.SilkS) (width 0.12))
  (fp_line (start 13.4 -2.3) (end 13.3 -1.8) (layer F.SilkS) (width 0.12))
  (fp_line (start 12.1 -1.8) (end 12 -2.3) (layer F.SilkS) (width 0.12))
  (fp_line (start 12.35 -1.45) (end 12.35 -1.8) (layer F.SilkS) (width 0.12))
  (fp_line (start 13.05 -1.45) (end 13.8 -1.45) (layer F.SilkS) (width 0.12))
  (fp_line (start 12.35 -1.8) (end 12.1 -1.8) (layer F.SilkS) (width 0.12))
  (fp_line (start -0.8 1.3) (end -0.8 2) (layer F.SilkS) (width 0.15))
  (fp_line (start -0.8 1.3) (end -1.5 1.3) (layer F.SilkS) (width 0.15))
  (pad 1 thru_hole rect (at 0 0) (size 1.9 1.9) (drill 1.2) (layers *.Cu *.Mask))
  (pad 2 thru_hole circle (at 2.54 0) (size 1.9 1.9) (drill 1.2) (layers *.Cu *.Mask))
  (pad 3 thru_hole circle (at 5.08 0) (size 1.9 1.9) (drill 1.2) (layers *.Cu *.Mask))
  (pad 4 thru_hole circle (at 7.62 0) (size 1.9 1.9) (drill 1.2) (layers *.Cu *.Mask))
  (pad 5 thru_hole circle (at 10.16 0) (size 1.9 1.9) (drill 1.2) (layers *.Cu *.Mask))
  (pad 6 thru_hole circle (at 12.7 0) (size 1.9 1.9) (drill 1.2) (layers *.Cu *.Mask))
  (pad "" thru_hole circle (at -2.54 0) (size 1.9 1.9) (drill 1.2) (layers *.Cu *.Mask))
  (pad "" thru_hole circle (at 15.24 0) (size 1.9 1.9) (drill 1.2) (layers *.Cu *.Mask))
  (model ${KIPRJMOD}/k_kicad_libs/models.3d/k_Connector_Phoenix_MC.3dshapes/k_PhoenixContact_MCV_0,5_6-G-2,54_1x02_P2.54mm_Vertical_MountHole.stp
    (offset (xyz -1.5 -2 0))
    (scale (xyz 1 1 1))
    (rotate (xyz 0 0 0))
  )
)
